,RandomForestClassifier,GaussianNB
training_duration,1.8895540237426758,0.04525303840637207
prediction_duration,0.08462309837341309,0.015624046325683594
precision,0.8496015314548644,0.8390682107200713
recall,0.8553587880028662,0.7384583887808374
f1-score,0.8507415744374911,0.7571978889033181
